Dynameta
…
Data: sample_data

The Dynameta package comes with sample_data, which is
used by default by the Dynameta Shiny app. This is an example dataset
containing data collected for a GLiTRS meta-analysis investigating the
effect of pollution (specifically pesticide application) on dragonfly
and damselfly (Odonata) abundance. The dataset is described in full in
?Dynameta::sample_data.

dim(Dynameta::sample_data)
#> [1] 47 46

# Print dataset as a tibble (nice way to preview dataset)
as_tibble(sample_data)
#> # A tibble: 47 × 46
#>    Paper_ID     Included Observ…¹ Author  Year Title Journal DOI   URL   Langu…²
#>    <chr>        <chr>    <chr>    <chr>  <int> <chr> <chr>   <chr> <chr> <chr>  
#>  1 Suhling 2000 Y        Suhling… Suhli…  2000 Effe… Hydrob… http… http… ""     
#>  2 Suhling 2000 Y        Suhling… Suhli…  2000 Effe… Hydrob… http… http… ""     
#>  3 Suhling 2000 Y        Suhling… Suhli…  2000 Effe… Hydrob… http… http… ""     
#>  4 Suhling 2000 Y        Suhling… Suhli…  2000 Effe… Hydrob… http… http… ""     
#>  5 Suhling 2000 Y        Suhling… Suhli…  2000 Effe… Hydrob… http… http… ""     
#>  6 Suhling 2000 Y        Suhling… Suhli…  2000 Effe… Hydrob… http… http… ""     
#>  7 Suhling 2000 Y        Suhling… Suhli…  2000 Effe… Hydrob… http… http… ""     
#>  8 Suhling 2000 Y        Suhling… Suhli…  2000 Effe… Hydrob… http… http… ""     
#>  9 Suhling 2000 Y        Suhling… Suhli…  2000 Effe… Hydrob… http… http… ""     
#> 10 Suhling 2000 Y        Suhling… Suhli…  2000 Effe… Hydrob… http… http… "Engli…
#> # … with 37 more rows, 36 more variables: Database <chr>, Latitude <dbl>,
#> #   Longitude <dbl>, Country <chr>, Taxa_level <chr>, Taxa_name <chr>,
#> #   Order <chr>, Family <chr>, Genus <lgl>, Binomial <chr>,
#> #   Life_history_stage <chr>, Experimental_year_start <int>,
#> #   Experimental_year_end <int>, Sampling_method <chr>,
#> #   Biodiversity_metric <chr>, Unit <chr>, IUCN_threat_category_1 <chr>,
#> #   IUCN_threat_category_2 <chr>, IUCN_threat_category_3 <chr>, …
…
